…
set.seed(432)
n <- 15
df <- tibble(
  z = rep(c("pirate", "ninja"), each = n),
  x = rep(runif(2 * n)),
  y = ifelse(z == "pirate",
             0 + 10 * x + rnorm(n),
             2 + 1 * x + rnorm(n, sd = 0.3))
)
df
#> # A tibble: 30 x 3
#>         z          x          y
#>     <chr>      <dbl>      <dbl>
#>  1 pirate 0.25541255  0.9680962
#>  2 pirate 0.04059619  0.9176334
#>  3 pirate 0.91917321  8.6229245
#>  4 pirate 0.17399523  0.9466420
#>  5 pirate 0.72620473  6.8520662
#>  6 pirate 0.93566938  9.5095919
#>  7 pirate 0.73654196  7.2541425
#>  8 pirate 0.23890687  3.0122949
#>  9 pirate 0.68228995  6.0306244
#> 10 pirate 0.95488898 11.0386772
#> # ... with 20 more rows
…
